Edges : 67108864 Vertices: 4194303
 -----------------------------------------------------
| Time Sorting (Seconds)                              | 
 -----------------------------------------------------
| 6.907210                                            | 
 -----------------------------------------------------
 -----------------------------------------------------
| 1                                                   | 
 -----------------------------------------------------
 -----------------------------------------------------
| Time BFS (Seconds)                                  | 
 -----------------------------------------------------
| 0.006868                                            | 
 -----------------------------------------------------
