Edges : 67108864 Vertices: 4194303
 -----------------------------------------------------
| Time Sorting (Seconds)                              | 
 -----------------------------------------------------
| 1.211006                                            | 
 -----------------------------------------------------
 -----------------------------------------------------
| 1                                                   | 
 -----------------------------------------------------
 -----------------------------------------------------
| Time BFS (Seconds)                                  | 
 -----------------------------------------------------
| 0.006995                                            | 
 -----------------------------------------------------
