Edges : 4194304 Vertices: 262144
 -----------------------------------------------------
| Time Sorting (Seconds)                              | 
 -----------------------------------------------------
| 0.062651                                            | 
 -----------------------------------------------------
 -----------------------------------------------------
| 2                                                   | 
 -----------------------------------------------------
 -----------------------------------------------------
| Time BFS (Seconds)                                  | 
 -----------------------------------------------------
| 0.000463                                            | 
 -----------------------------------------------------
