Edges : 103689 Vertices: 8298
 -----------------------------------------------------
| Time Sorting (Seconds)                              | 
 -----------------------------------------------------
| 0.001659                                            | 
 -----------------------------------------------------
 -----------------------------------------------------
| 2316                                                | 
 -----------------------------------------------------
 -----------------------------------------------------
| Time BFS (Seconds)                                  | 
 -----------------------------------------------------
| 0.000164                                            | 
 -----------------------------------------------------
