Edges : 88234 Vertices: 4039
 -----------------------------------------------------
| Time Sorting (Seconds)                              | 
 -----------------------------------------------------
| 0.001409                                            | 
 -----------------------------------------------------
 -----------------------------------------------------
| 7                                                   | 
 -----------------------------------------------------
 -----------------------------------------------------
| Time BFS (Seconds)                                  | 
 -----------------------------------------------------
| 0.000011                                            | 
 -----------------------------------------------------
