Edges : 8388608 Vertices: 524289
 -----------------------------------------------------
| Time Sorting (Seconds)                              | 
 -----------------------------------------------------
| 0.120514                                            | 
 -----------------------------------------------------
 -----------------------------------------------------
| 139202                                              | 
 -----------------------------------------------------
 -----------------------------------------------------
| Time BFS (Seconds)                                  | 
 -----------------------------------------------------
| 0.043319                                            | 
 -----------------------------------------------------
